{ "photo": { 
    "person": [
      { "nsid": "73562874@N08", "username": "hemantsch", "favedate": "1335089479", "iconserver": "7043", "iconfarm": 8 },
      { "nsid": "77722664@N04", "username": "koinisk", "favedate": "1334594504", "iconserver": 0, "iconfarm": 0 },
      { "nsid": "76018605@N04", "username": "smilinghelps<3", "favedate": "1331492450", "iconserver": 0, "iconfarm": 0 },
      { "nsid": "76133955@N05", "username": "kristaruane", "favedate": "1330469831", "iconserver": 0, "iconfarm": 0 },
      { "nsid": "75507183@N06", "username": "nessacrow6", "favedate": "1327884762", "iconserver": 0, "iconfarm": 0 },
      { "nsid": "44669861@N00", "username": "Dear Prudence", "favedate": "1322208125", "iconserver": "3166", "iconfarm": 4 },
      { "nsid": "55499300@N06", "username": "Cubmundo", "favedate": "1318218861", "iconserver": "4108", "iconfarm": 5 },
      { "nsid": "66900994@N05", "username": "tateaveryk", "favedate": "1316619383", "iconserver": 0, "iconfarm": 0 },
      { "nsid": "64155656@N08", "username": "Tienes cara de potito", "favedate": "1316035459", "iconserver": "3605", "iconfarm": 4 },
      { "nsid": "67225672@N03", "username": "lilredgreen7", "favedate": "1315340324", "iconserver": 0, "iconfarm": 0 }
    ], "id": "2679305152", "secret": "e44211ce91", "server": "3065", "farm": 4, "page": 1, "pages": 3, "perpage": 10, "total": 28 }, "stat": "ok" }